Analyzing, Integrating, and Visualizing Data in R
…
ℹ Use `spec()` to retrieve the full column specification for this data.
ℹ Specify the column types or set `show_col_types = FALSE` to quiet this message.

Now, let’s go ahead print the contents of world_bank_list:

# prints contents of "world_bank_list"
world_bank_list

[[1]]
# A tibble: 271 × 5
   `Country Name`     `Country Code` `Series Name` `Series Code` `2019 [YR2019]`
   <chr>              <chr>          <chr>         <chr>         <chr>          
 1 Afghanistan        AFG            Central gove… GC.DOD.TOTL.… ..             
 2 Albania            ALB            Central gove… GC.DOD.TOTL.… 75.69848824949…
 3 Algeria            DZA            Central gove… GC.DOD.TOTL.… ..             
 4 American Samoa     ASM            Central gove… GC.DOD.TOTL.… ..             
 5 Andorra            AND            Central gove… GC.DOD.TOTL.… ..             
 6 Angola             AGO            Central gove… GC.DOD.TOTL.… ..             
 7 Antigua and Barbu… ATG            Central gove… GC.DOD.TOTL.… ..             
 8 Argentina          ARG            Central gove… GC.DOD.TOTL.… ..             
 9 Armenia            ARM            Central gove… GC.DOD.TOTL.… 50.02842068637…
10 Aruba              ABW            Central gove… GC.DOD.TOTL.… ..             
# ℹ 261 more rows

[[2]]
# A tibble: 271 × 5
   `Country Name`     `Country Code` `Series Name` `Series Code` `2019 [YR2019]`
   <chr>              <chr>          <chr>         <chr>         <chr>          
 1 Afghanistan        AFG            Foreign dire… BX.KLT.DINV.… 0.124495985791…
 2 Albania            ALB            Foreign dire… BX.KLT.DINV.… 7.797920483865…
 3 Algeria            DZA            Foreign dire… BX.KLT.DINV.… 0.804144058246…
 4 American Samoa     ASM            Foreign dire… BX.KLT.DINV.… ..             
 5 Andorra            AND            Foreign dire… BX.KLT.DINV.… ..             
 6 Angola             AGO            Foreign dire… BX.KLT.DINV.… -5.78081314444…
 7 Antigua and Barbu… ATG            Foreign dire… BX.KLT.DINV.… 7.433324076307…
 8 Argentina          ARG            Foreign dire… BX.KLT.DINV.… 1.485006875706…
 9 Armenia            ARM            Foreign dire… BX.KLT.DINV.… 0.736361516844…
10 Aruba              ABW            Foreign dire… BX.KLT.DINV.… -2.21528256776…
# ℹ 261 more rows

[[3]]
# A tibble: 271 × 5
   `Country Name`     `Country Code` `Series Name` `Series Code` `2019 [YR2019]`
   <chr>              <chr>          <chr>         <chr>         <chr>          
 1 Afghanistan        AFG            Trade (% of … NE.TRD.GNFS.… ..             
 2 Albania            ALB            Trade (% of … NE.TRD.GNFS.… 76.27919464957…
 3 Algeria            DZA            Trade (% of … NE.TRD.GNFS.… 51.80973844157…
 4 American Samoa     ASM            Trade (% of … NE.TRD.GNFS.… 156.5687789799…
 5 Andorra            AND            Trade (% of … NE.TRD.GNFS.… ..             
 6 Angola             AGO            Trade (% of … NE.TRD.GNFS.… 57.82953811830…
 7 Antigua and Barbu… ATG            Trade (% of … NE.TRD.GNFS.… 137.6251757558…
 8 Argentina          ARG            Trade (% of … NE.TRD.GNFS.… 32.63061504584…
 9 Armenia            ARM            Trade (% of … NE.TRD.GNFS.… 96.11415412887…
10 Aruba              ABW            Trade (% of … NE.TRD.GNFS.… 145.3435727352…
# ℹ 261 more rows

[[4]]
# A tibble: 271 × 5
   `Country Name`     `Country Code` `Series Name` `Series Code` `2019 [YR2019]`
   <chr>              <chr>          <chr>         <chr>         <chr>          
 1 Afghanistan        AFG            Urban popula… SP.URB.TOTL.… 25.754         
 2 Albania            ALB            Urban popula… SP.URB.TOTL.… 61.229         
 3 Algeria            DZA            Urban popula… SP.URB.TOTL.… 73.189         
 4 American Samoa     ASM            Urban popula… SP.URB.TOTL.… 87.147         
 5 Andorra            AND            Urban popula… SP.URB.TOTL.… 87.984         
 6 Angola             AGO            Urban popula… SP.URB.TOTL.… 66.177         
 7 Antigua and Barbu… ATG            Urban popula… SP.URB.TOTL.… 24.506         
 8 Argentina          ARG            Urban popula… SP.URB.TOTL.… 91.991         
 9 Armenia            ARM            Urban popula… SP.URB.TOTL.… 63.219         
10 Aruba              ABW            Urban popula… SP.URB.TOTL.… 43.546         
# ℹ 261 more rows
…
