Processing, Wrangling and Analyzing Data in R
…
As you continue working in R, it may be helpful to read data in directly from cloud storage, rather than your local machine. It may take some effort to figure out how to do this (it will vary depending on your cloud storage provider) but it can be as simple as passing the link to your data to an R function. For example, an alternative way of reading the PT data into R is to paste the Dropbox link associated with the dataset to the read_csv() function. If you’re reading in files from Dropbox, change the “0” at the end of the url to a 1 before reading it into R.

read_csv("https://www.dropbox.com/scl/fo/2aianyhhdx92auh9aa6l2/AFfOXirAyGDi-xPC2c_gcDw/data/pt/persson_tabellini_workshop.csv?rlkey=ilmv8do8gcpmd8m43tbw2wxjp&e=1&dl=1")

Rows: 85 Columns: 75
── Column specification ────────────────────────────────────────────────────────
Delimiter: ","
chr  (2): country, continent
dbl (73): oecd, pind, pindo, ctrycd, col_uk, t_indep, col_uka, col_espa, col...

ℹ Use `spec()` to retrieve the full column specification for this data.
ℹ Specify the column types or set `show_col_types = FALSE` to quiet this message.

# A tibble: 85 × 75
    oecd country     pind pindo ctrycd col_uk t_indep col_uka col_espa col_otha
   <dbl> <chr>      <dbl> <dbl>  <dbl>  <dbl>   <dbl>   <dbl>    <dbl>    <dbl>
 1     0 Argentina  0     0        213      0     183   0        0.268    0    
 2     1 Australia  1     1        193      1      98   0.608    0        0    
 3     1 Austria    0     0        122      0     250   0        0        0    
 4     0 Bahamas    1     1        313      1      26   0.896    0        0    
 5     0 Bangladesh 1     1        513      0      28   0        0        0.888
 6     0 Barbados   1     1        316      1      33   0.868    0        0    
 7     0 Belarus    1     1        913      0       8   0        0        0.968
 8     1 Belgium    0     0        124      0     169   0        0        0.324
 9     0 Belize     1     1        339      1      18   0.928    0        0    
10     0 Bolivia    0.116 0.116    218      0     174   0        0.304    0    
# ℹ 75 more rows
# ℹ 65 more variables: legor_uk <dbl>, legor_so <dbl>, legor_fr <dbl>,
#   legor_ge <dbl>, legor_sc <dbl>, prot80 <dbl>, catho80 <dbl>, confu <dbl>,
#   avelf <dbl>, govef <dbl>, graft <dbl>, logyl <dbl>, loga <dbl>,
#   yrsopen <dbl>, gadp <dbl>, engfrac <dbl>, eurfrac <dbl>, frankrom <dbl>,
#   latitude <dbl>, gastil <dbl>, cgexp <dbl>, cgrev <dbl>, ssw <dbl>,
#   rgdph <dbl>, trade <dbl>, prop1564 <dbl>, prop65 <dbl>, federal <dbl>, …
…
# Selects "country", "cgexp", "cgrev", and "trade" variables from the "pt_copy" dataset and assigns the selection to a new object named "pt_copy_selection"
pt_copy_selection<-pt_copy %>% 
                    select(country, cgexp, cgrev, trade, federal)

When we view the pt_copy_selection object in the data viewer, we’ll see that we now have a new data frame that consists only of these variables:

# views "pt_copy_selection" in data viewer
View(pt_copy_selection)

Sometimes, it could make more sense to directly delete columns, instead of deciding on which ones to keep or select. For example, the code below deletes the “federal” variable from pt_copy_selection by passing it to the select() column with a “-” in front of it.

# deletes "federal" variable from "pt_copy_selection"
pt_copy_selection %>% select(-federal)

# A tibble: 85 × 4
   country      cgexp cgrev trade
   <chr>        <dbl> <dbl> <dbl>
 1 Mauritius     22.5  21.6 128. 
 2 Gambia        24.4  23.8 122. 
 3 Namibia       37.3  33.2 115. 
 4 Botswana      38.6  50.8  87.5
 5 Zambia        25.2  19.7  73.8
 6 Zimbabwe      31.2  25.6  69.2
 7 Senegal       NA    NA    65.4
 8 Malawi        25.8  NA    62.5
 9 Ghana         19.0  17.2  53.5
10 South Africa  31.3  24.1  43.9
# ℹ 75 more rows
…
ℹ Use `spec()` to retrieve the full column specification for this data.
ℹ Specify the column types or set `show_col_types = FALSE` to quiet this message.
Rows: 271 Columns: 5
── Column specification ────────────────────────────────────────────────────────
Delimiter: ","
chr (5): Country Name, Country Code, Series Name, Series Code, 2019 [YR2019]

ℹ Use `spec()` to retrieve the full column specification for this data.
ℹ Specify the column types or set `show_col_types = FALSE` to quiet this message.

# prints contents of "world_bank_list"
world_bank_list

[[1]]
# A tibble: 271 × 5
   `Country Name`     `Country Code` `Series Name` `Series Code` `2019 [YR2019]`
   <chr>              <chr>          <chr>         <chr>         <chr>          
 1 Afghanistan        AFG            Central gove… GC.DOD.TOTL.… ..             
 2 Albania            ALB            Central gove… GC.DOD.TOTL.… 75.69848824949…
 3 Algeria            DZA            Central gove… GC.DOD.TOTL.… ..             
 4 American Samoa     ASM            Central gove… GC.DOD.TOTL.… ..             
 5 Andorra            AND            Central gove… GC.DOD.TOTL.… ..             
 6 Angola             AGO            Central gove… GC.DOD.TOTL.… ..             
 7 Antigua and Barbu… ATG            Central gove… GC.DOD.TOTL.… ..             
 8 Argentina          ARG            Central gove… GC.DOD.TOTL.… ..             
 9 Armenia            ARM            Central gove… GC.DOD.TOTL.… 50.02842068637…
10 Aruba              ABW            Central gove… GC.DOD.TOTL.… ..             
# ℹ 261 more rows

[[2]]
# A tibble: 271 × 5
   `Country Name`     `Country Code` `Series Name` `Series Code` `2019 [YR2019]`
   <chr>              <chr>          <chr>         <chr>         <chr>          
 1 Afghanistan        AFG            Foreign dire… BX.KLT.DINV.… 0.124495985791…
 2 Albania            ALB            Foreign dire… BX.KLT.DINV.… 7.797920483865…
 3 Algeria            DZA            Foreign dire… BX.KLT.DINV.… 0.804144058246…
 4 American Samoa     ASM            Foreign dire… BX.KLT.DINV.… ..             
 5 Andorra            AND            Foreign dire… BX.KLT.DINV.… ..             
 6 Angola             AGO            Foreign dire… BX.KLT.DINV.… -5.78081314444…
 7 Antigua and Barbu… ATG            Foreign dire… BX.KLT.DINV.… 7.433324076307…
 8 Argentina          ARG            Foreign dire… BX.KLT.DINV.… 1.485006875706…
 9 Armenia            ARM            Foreign dire… BX.KLT.DINV.… 0.736361516844…
10 Aruba              ABW            Foreign dire… BX.KLT.DINV.… -2.21528256776…
# ℹ 261 more rows

[[3]]
# A tibble: 271 × 5
   `Country Name`     `Country Code` `Series Name` `Series Code` `2019 [YR2019]`
   <chr>              <chr>          <chr>         <chr>         <chr>          
 1 Afghanistan        AFG            Trade (% of … NE.TRD.GNFS.… ..             
 2 Albania            ALB            Trade (% of … NE.TRD.GNFS.… 76.27919464957…
 3 Algeria            DZA            Trade (% of … NE.TRD.GNFS.… 51.80973844157…
 4 American Samoa     ASM            Trade (% of … NE.TRD.GNFS.… 156.5687789799…
 5 Andorra            AND            Trade (% of … NE.TRD.GNFS.… ..             
 6 Angola             AGO            Trade (% of … NE.TRD.GNFS.… 57.82953811830…
 7 Antigua and Barbu… ATG            Trade (% of … NE.TRD.GNFS.… 137.6251757558…
 8 Argentina          ARG            Trade (% of … NE.TRD.GNFS.… 32.63061504584…
 9 Armenia            ARM            Trade (% of … NE.TRD.GNFS.… 96.11415412887…
10 Aruba              ABW            Trade (% of … NE.TRD.GNFS.… 145.3435727352…
# ℹ 261 more rows

[[4]]
# A tibble: 271 × 5
   `Country Name`     `Country Code` `Series Name` `Series Code` `2019 [YR2019]`
   <chr>              <chr>          <chr>         <chr>         <chr>          
 1 Afghanistan        AFG            Urban popula… SP.URB.TOTL.… 25.754         
 2 Albania            ALB            Urban popula… SP.URB.TOTL.… 61.229         
 3 Algeria            DZA            Urban popula… SP.URB.TOTL.… 73.189         
 4 American Samoa     ASM            Urban popula… SP.URB.TOTL.… 87.147         
 5 Andorra            AND            Urban popula… SP.URB.TOTL.… 87.984         
 6 Angola             AGO            Urban popula… SP.URB.TOTL.… 66.177         
 7 Antigua and Barbu… ATG            Urban popula… SP.URB.TOTL.… 24.506         
 8 Argentina          ARG            Urban popula… SP.URB.TOTL.… 91.991         
 9 Armenia            ARM            Urban popula… SP.URB.TOTL.… 63.219         
10 Aruba              ABW            Urban popula… SP.URB.TOTL.… 43.546         
# ℹ 261 more rows
…
